{
  "version": 1,
  "isRoot": true,
  "tools": {
    "dotnet-fsharplint": {
      "version": "0.21.2",
      "commands": [
        "dotnet-fsharplint"
      ]
    },
    "fantomas-tool": {
      "version": "4.7.9",
      "commands": [
        "fantomas"
      ]
    }
  }
}